\relax 
\@writefile{toc}{\contentsline {chapter}{\numberline {1}}{1}{}\protected@file@percent }
\@writefile{lof}{\addvspace {10\p@ }}
\@writefile{lot}{\addvspace {10\p@ }}
\@writefile{toc}{\contentsline {section}{\numberline {1.1}}{1}{}\protected@file@percent }
\@writefile{toc}{\contentsline {section}{\numberline {1.2}}{2}{}\protected@file@percent }
\@writefile{toc}{\contentsline {chapter}{\numberline {2}}{3}{}\protected@file@percent }
\@writefile{lof}{\addvspace {10\p@ }}
\@writefile{lot}{\addvspace {10\p@ }}
\@writefile{toc}{\contentsline {section}{\numberline {2.1}}{3}{}\protected@file@percent }
\@writefile{toc}{\contentsline {subsection}{\numberline {2.1.1}}{3}{}\protected@file@percent }
\@writefile{toc}{\contentsline {subsection}{\numberline {2.1.2}}{3}{}\protected@file@percent }
\@writefile{toc}{\contentsline {section}{\numberline {2.2}}{3}{}\protected@file@percent }
\@writefile{toc}{\contentsline {subsection}{\numberline {2.2.1}}{3}{}\protected@file@percent }
\@writefile{toc}{\contentsline {subsection}{\numberline {2.2.2}}{3}{}\protected@file@percent }
\@writefile{toc}{\contentsline {section}{\numberline {2.3}}{3}{}\protected@file@percent }
\@writefile{toc}{\contentsline {subsection}{\numberline {2.3.1}}{3}{}\protected@file@percent }
\gdef \@abspage@last{4}
