\relax 
\@writefile{toc}{\contentsline {chapter}{\numberline {1}Formulas}{1}{}\protected@file@percent }
\@writefile{lof}{\addvspace {10\p@ }}
\@writefile{lot}{\addvspace {10\p@ }}
\@writefile{toc}{\contentsline {chapter}{\numberline {2}Chapter 2: Risk premium, market risk, diversification, beta, alpha, portfolio}{4}{}\protected@file@percent }
\@writefile{lof}{\addvspace {10\p@ }}
\@writefile{lot}{\addvspace {10\p@ }}
\@writefile{toc}{\contentsline {section}{\numberline {2.1}Each of the following statements is dangerous or misleading. Why?}{4}{}\protected@file@percent }
\@writefile{toc}{\contentsline {section}{\numberline {2.2}Lonesome Gulch Mines has a standard deviation of 42 percent per year and a beta of +.10. Amalgamanted Copper has a standard deviation of 31 percent a year and a beta of +.66. Explain why Lonesome Gulch is the safer investment for a diversified investor.}{5}{}\protected@file@percent }
\@writefile{toc}{\contentsline {section}{\numberline {2.3}Company, which owns a stable of racehorses, has just invested in a mysterious black stallion with great form but disputed bloodlines. Some experts in horseflesh predict the horse will win the covected Prix de Bidet; others argue that it should be put out to grass. Is this a risky investment for shareholder?}{5}{}\protected@file@percent }
\@writefile{toc}{\contentsline {section}{\numberline {2.4}How many variance terms and how many covariance terms do you need to calculate the risk of a 100-share portfolio?}{5}{}\protected@file@percent }
\@writefile{toc}{\contentsline {section}{\numberline {2.5}Your eccentric Aunt Claudia has left you \$50,000 in Canadian Pacific shares plus \$50,000 cash. Unfortunately her will requires that the Canadian Pacific stock not be sold for one year and the \$50,000 cash must be entirely invested in one of the stocks shown in Table 7.9. What is the safest attainable portfolio under these restrictions?}{6}{}\protected@file@percent }
\@writefile{toc}{\contentsline {section}{\numberline {2.6}Suppose you are able to find a German stock with a beta of -.30 against the German market index (DAX)}{6}{}\protected@file@percent }
\@writefile{toc}{\contentsline {chapter}{\numberline {3}Chapter 3: Portfolio Optimization in the Real World and Asset Pricing}{8}{}\protected@file@percent }
\@writefile{lof}{\addvspace {10\p@ }}
\@writefile{lot}{\addvspace {10\p@ }}
\@writefile{toc}{\contentsline {section}{\numberline {3.1}True or false}{8}{}\protected@file@percent }
\@writefile{toc}{\contentsline {section}{\numberline {3.2}Is a portfolio better/worse compared to one which only hold 1 stock?}{8}{}\protected@file@percent }
\@writefile{toc}{\contentsline {section}{\numberline {3.3}The Treasury bill rate is 4 percent, and the expected return on the market portfolio is 12 percent. Using the capital asset pricing model:}{9}{}\protected@file@percent }
\@writefile{toc}{\contentsline {section}{\numberline {3.4}Company has \$10 million invested in long-term corporate bonds. This bond portfolio's expected annual rate of return is 9 percent, and the annual standard deviation is 10 percent. Its finnacial adviser, recommands considering investing in an index fund which closely tracks the Standard and Poor's 500 index. The index has an expected return of 14 percent, and its standard deviation is 16 percent.}{9}{}\protected@file@percent }
\@writefile{toc}{\contentsline {section}{\numberline {3.5}Some true or false question about APT:}{10}{}\protected@file@percent }
\@writefile{toc}{\contentsline {section}{\numberline {3.6}Consider the following simplified APT models Calculate the expected return for the following stocks. Assume $r_{f} = 5$ percent}{11}{}\protected@file@percent }
\@writefile{toc}{\contentsline {section}{\numberline {3.7}Look at quesiton above. Consider equal investments in stocks P1, P2, P3}{11}{}\protected@file@percent }
\@writefile{toc}{\contentsline {section}{\numberline {3.8}The following table shows the sensitivity of four stocks to the three Fama-French factors in the give year to 2002. Estimate the expected return on each stock assuming that the interest rate is 1 percent, the expected risk premium on the market is 7.6 percent, the expected risk premium on the size factor is 3.9 percent, and the expected risk premium on the book-to-market factor is 4.4 percent. (These were the realized premia from 1926 - 2002.)}{12}{}\protected@file@percent }
\@writefile{toc}{\contentsline {chapter}{\numberline {4}Chapter 4: Market efficiency: predictability and arbitrage}{13}{}\protected@file@percent }
\@writefile{lof}{\addvspace {10\p@ }}
\@writefile{lot}{\addvspace {10\p@ }}
\@writefile{toc}{\contentsline {section}{\numberline {4.1}How would you resopnd to the following comments?}{13}{}\protected@file@percent }
\@writefile{toc}{\contentsline {section}{\numberline {4.2}Respond to the following comments:}{13}{}\protected@file@percent }
\@writefile{toc}{\contentsline {section}{\numberline {4.3}Which of the following observations \emph  {appear} to indicate market inefficiency? Explain weather the observation appears to contract the weak, semistrong, or strong form of the efficient-market hyptohesis.}{14}{}\protected@file@percent }
\@writefile{toc}{\contentsline {section}{\numberline {4.4}It is sometimes suggested that stocks with low price-earnings ratios tend to be under-priced. Describe a possible test of this view. Be as precise as possible.}{14}{}\protected@file@percent }
\@writefile{toc}{\contentsline {section}{\numberline {4.5}"If the efficient-market hypothesis is true, the pension fund manager might as well select a portfolio with a pin." Explain why this is not so.}{15}{}\protected@file@percent }
\@writefile{toc}{\contentsline {section}{\numberline {4.6}Here are alphas (in percent per month) and betas based on monthly returns from June 2001 to October 2004:}{15}{}\protected@file@percent }
\@writefile{toc}{\contentsline {section}{\numberline {4.7}What does the EMH say about the following statemtns?}{15}{}\protected@file@percent }
\@writefile{toc}{\contentsline {section}{\numberline {4.8}Two financial managers, Alpha and Beta, are contemplating a chart showing the actual performance of the Standard and Poor's Composite Index over a five-year period. Each manager's company needs to issue new shares of common stock sometime in the next year.\\ Alpha: My company's going to issue right away. The stock market cycle has obviously topped out, and the next move is almost surely down. Better to issue now and get a decent price for the shares.\\ Beta: You're too nervous; we're waiting. It's true that the market's been going nowhere for the past year or so, but the figure clearly shows a basic upward trend. The market's on the way up to a new plateau.\\ What would you say to Alpha and Beta?}{16}{}\protected@file@percent }
\@writefile{toc}{\contentsline {section}{\numberline {4.9}We suggeseted that there are three possible interpretations of the small-firm effect: a required return for some unidentified risk factor, a coincidence, or market inefficiency. Write three brief memos, arguing each point of view.}{17}{}\protected@file@percent }
\@writefile{toc}{\contentsline {section}{\numberline {4.10}Column (A) in the table shows the monthly return on the British FTSE 100 index. Columns (B) and (C) show returns on the stocks of two firms -- Exective Cheese amd Paddington Beet. Both firms annouced their earnings in May 2004. Calculate the average abnormal return of the two stocks during the moonth of the dividend announcement.}{17}{}\protected@file@percent }
\@writefile{toc}{\contentsline {section}{\numberline {4.11}On May 15, 1997, the government of Kuwait offered to sell 170 million BP shares, worth about \$2 billion. Goldman Sachs was contacted after the stock market closed in London and given one hour to decide whether to bid on the stock. They decided to offer 710.5 pence (\$11.59) per share, and Kuwait accepted. Then Goldman Sachs went looking for buyers. They lined up 500 institutional and individual investors worldwide, and resold all the shares at 716 pence (\$11.70). The resale was complete before the London Stock Exchange opened the next morning. Goldman Sachs made \$15 million overnight. 36 What does this deal say about market efficiency?}{18}{}\protected@file@percent }
\@writefile{toc}{\contentsline {chapter}{\numberline {5}Chapter 5: Understanding options}{19}{}\protected@file@percent }
\@writefile{lof}{\addvspace {10\p@ }}
\@writefile{lot}{\addvspace {10\p@ }}
\@writefile{toc}{\contentsline {section}{\numberline {5.1}Discuss briefly the risks and payoffs of the following positions:}{19}{}\protected@file@percent }
\@writefile{toc}{\contentsline {section}{\numberline {5.2}The buyer of the call and the seller of the put both hope that the stock price will rise. Therefore the two positions are identical. Is this correct?}{19}{}\protected@file@percent }
\@writefile{toc}{\contentsline {section}{\numberline {5.3}It is possible to buy three-month call options and three-month puts on stock Q. Both options have an exercise price of \$60 and both are worth \$10.Is a six-month call with an exercise price of \$60 more or less valuable than a similar six-month put? (Hint: Use put-call parity.)}{20}{}\protected@file@percent }
\@writefile{toc}{\contentsline {section}{\numberline {5.4}Drake and Eider's stock is trading at \$10 per share. A one-year \emph  {American} call option with an exercise price of \$5 can be purchased at \$4 per share. The interest rate is 5 percent. How could you profot from this mispricing? Now suppose the call is \emph  {European}. How could you profit in this case?}{21}{}\protected@file@percent }
\@writefile{toc}{\contentsline {section}{\numberline {5.5}An eight-month call on the stock, with an exercise price of \$50.00, sold for \$9.05. The stock price was \$54. The risk-free interest rate was 1.5 percent. How much would you be willing to pay for a put on Amazon stock with the same maturity and exercise price? Assume they are European options}{21}{}\protected@file@percent }
\@writefile{toc}{\contentsline {section}{\numberline {5.6}FX Bank has succeeded in hiring ace foreign exchange trader, X. Her package includes an annual bonus of 20 percent of the profits that she generated in exess of \$50 million. Does X have an option? Does it povide her with the appropriate incentives?}{22}{}\protected@file@percent }
\@writefile{toc}{\contentsline {section}{\numberline {5.7}Which one of the following statements is correct?}{22}{}\protected@file@percent }
\@writefile{toc}{\contentsline {section}{\numberline {5.8}Company A, hast just announced a large quarterly loss and approached you for emergency financing. Lorely offers a parcel of valuable real estate as collateral for a one-year, \$5 million loan at 4 percent. In addition, it offers bonus interest of 1 percent for every 5 percent increase in the companys stock price over the next year. For example, if companyes stock appreciates by 10 percent from \$10 to \$11, you would get bonus interest of 2 percent on the loan of \$5 million.}{22}{}\protected@file@percent }
\@writefile{toc}{\contentsline {section}{\numberline {5.9}The common stock sells for \$90. A 26-week call option is selling for \$8. The call's exercise price is \$100. The risk-free interest rate is 10\% per year.}{23}{}\protected@file@percent }
\@writefile{toc}{\contentsline {section}{\numberline {5.10}Question}{23}{}\protected@file@percent }
\@writefile{toc}{\contentsline {section}{\numberline {5.11}Australian Diatomics has 10 million outstanding shares trading at \$25 per share. It also has a large amount of debt outstanding, all coming due in one year. The debt pays interest at 8 percent. It has a par(face) value of \$350 million, but is trading at a market value of only \$270 million. The one-year risk-free interest rate is 6 percent.}{24}{}\protected@file@percent }
\@writefile{toc}{\contentsline {section}{\numberline {5.12}Option traders often refer to "straddles" and "butterflies". Here is an example of each:\\ Straddle: Buy call with exericse price of \$100 and simultaneously but put with exercise price of \$100\\ Butterfly: simultaneously buy one call with exercise price of \$100, sell two calls with exercise price of \$110, and buy one call with exercise price of \$120.\\ Draw positions diagrams for the straddle and butterfly, showing the payoffs from the investor's net position. Each strategy is a bet on variability. Explain briefly the nature of each bet.}{25}{}\protected@file@percent }
\@writefile{toc}{\contentsline {section}{\numberline {5.13}The interest rate is 10 percent a year. Can you spot any mispricing? What could you do to take advantage of it?}{28}{}\protected@file@percent }
\@writefile{toc}{\contentsline {section}{\numberline {5.14}Is it more valuable to own an option to buy a portfolio of stocks or to own a portfolio of options to buy each individual stock?}{28}{}\protected@file@percent }
\@writefile{toc}{\contentsline {section}{\numberline {5.15}You've jsut completed a month-long study of energy markets and conclude that energy prices will be much more volatile in the next year than historically. Assuming you're right, what types of option strategies should you undertake? \emph  {Note:} You can buy or sell options on oil-company stocks or on the price of future deliveries of cruse oil, natural gas, fuel oil, etc.}{29}{}\protected@file@percent }
\@writefile{toc}{\contentsline {chapter}{\numberline {6}Chapter 6: Valuing options}{30}{}\protected@file@percent }
\@writefile{lof}{\addvspace {10\p@ }}
\@writefile{lot}{\addvspace {10\p@ }}
\@writefile{toc}{\contentsline {section}{\numberline {6.1}Question}{30}{}\protected@file@percent }
\@writefile{toc}{\contentsline {section}{\numberline {6.2}Suppose that you own an American put option on some stock (exercise above) with an exercise price of \$110}{31}{}\protected@file@percent }
\@writefile{toc}{\contentsline {section}{\numberline {6.3}Suppose you construct an option hedge by buying a levered position in delta shares of stock and selling one call option. As the share price changes, the option delta changes, and you will need to adjust your hedge. You can minimize the cost of adjustments if changes in the stock price have only a small effect on the option delta. Construct an example to show whether the option delta is likely to vary more if you hedge with an in the-money option, an at-the-money option, or an out-of-the-money option.}{32}{}\protected@file@percent }
\@writefile{toc}{\contentsline {section}{\numberline {6.4}Other things equal, which of these American options are you most likely to want to exercise early?}{32}{}\protected@file@percent }
\@writefile{toc}{\contentsline {section}{\numberline {6.5}Is it better to exercise a call option on the with-dividend date or on the ex-dividend date? How about a put option? Explain?}{33}{}\protected@file@percent }
\@writefile{toc}{\contentsline {section}{\numberline {6.6}Here is a question about dilution. The Electric Bassoon Company has outstanding 2,000 shares with a total market value of \$20,000 plus 1,000 warrants with a total market value of \$5,000. Each warrant gives its holder the option to buy one share at \$20.}{34}{}\protected@file@percent }
\@writefile{toc}{\contentsline {chapter}{\numberline {7}Chapter 7: Real options}{35}{}\protected@file@percent }
\@writefile{lof}{\addvspace {10\p@ }}
\@writefile{lot}{\addvspace {10\p@ }}
\@writefile{toc}{\contentsline {chapter}{\numberline {8}Chapter 8: Government bonds and interest rates}{44}{}\protected@file@percent }
\@writefile{lof}{\addvspace {10\p@ }}
\@writefile{lot}{\addvspace {10\p@ }}
\@writefile{toc}{\contentsline {section}{\numberline {8.1}Is the yield on high-coupon bonds more likely to be higher than that on low-coupon bond when the term structure is upward-sloping or when it is downward-sloping?}{44}{}\protected@file@percent }
\@writefile{toc}{\contentsline {section}{\numberline {8.2}A 6 percent six-year bond yields 12 percent and a 10 percent six-year bond yields 8 percent. Calculate the six-year spot rate. (Assume annual) coupon payment.}{44}{}\protected@file@percent }
\@writefile{toc}{\contentsline {section}{\numberline {8.3}The one-year spot rate is $r_{1} = 6$ percent, and the forward rate for a one-year loan maturing in year 2 is $f_{2} = 6.4$ percent. Similary, $f_{3} = 7.1$ percent, $f_{4} = 7.3$ percent and $f_{5} = 8.2$ percent. What are the spot rates $r_{2}, r_{3}, r_{4}, r_{5}$? If the expectations hypothesis holds, what can you sya about expected future interest rates?}{44}{}\protected@file@percent }
\gdef \@abspage@last{44}
